[{"iban":"IL35 2102 6847 8514 7567 851","date":"21/01/2017","description":"Maecenas leo odio, condimentum id, luctus nec, molestie sed, justo. Pellentesque viverra pede ac diam. Cras pellentesque volutpat dui.","amount":177.68},
{"iban":"LB46 3239 JS7O TRQK YZ22 DRNH RL3L","date":"22/03/2017","description":"Nulla tempus. Vivamus in felis eu sapien cursus vestibulum. Proin eu mi. Nulla ac enim. In tempor, turpis nec euismod scelerisque, quam turpis adipiscing lorem, vitae mattis nibh ligula nec sem.","amount":-121.7},
{"iban":"AD81 8903 1171 PKMG NG8H JUNJ","date":"25/02/2018","description":"In quis justo. Maecenas rhoncus aliquam lacus. Morbi quis tortor id nulla ultrices aliquet. Maecenas leo odio, condimentum id, luctus nec, molestie sed, justo. Pellentesque viverra pede ac diam. Cras pellentesque volutpat dui.","amount":621.72},
{"iban":"FR43 1382 7950 10NC FYOZ MDNR J55","date":"08/04/2018","description":"Vivamus metus arcu, adipiscing molestie, hendrerit at, vulputate vitae, nisl. Aenean lectus.","amount":-970.64},
{"iban":"DE87 8194 8427 6699 9096 46","date":"14/12/2017","description":"Sed ante. Vivamus tortor.","amount":-142.96},
{"iban":"IL07 0623 9042 6148 9362 735","date":"08/01/2018","description":"Nulla nisl. Nunc nisl.","amount":-154.0},
{"iban":"FO44 3973 1117 9173 01","date":"23/04/2018","description":"In congue. Etiam justo. Etiam pretium iaculis justo. In hac habitasse platea dictumst. Etiam faucibus cursus urna. Ut tellus. Nulla ut erat id mauris vulputate elementum. Nullam varius.","amount":297.45},
{"iban":"MD81 YRRT NFIC Z64M JYF4 WWEA","date":"16/04/2017","description":"Morbi vestibulum, velit id pretium iaculis, diam erat fermentum justo, nec condimentum neque sapien placerat ante. Nulla justo. Aliquam quis turpis eget elit sodales scelerisque. Mauris sit amet eros. Suspendisse accumsan tortor quis turpis. Sed ante. Vivamus tortor. Duis mattis egestas metus. Aenean fermentum. Donec ut mauris eget massa tempor convallis.","amount":593.64},
{"iban":"CY55 4633 2853 MQBY MKUL HHQ0 G94C","date":"23/11/2017","description":"Mauris lacinia sapien quis libero. Nullam sit amet turpis elementum ligula vehicula consequat. Morbi a ipsum. Integer a nibh. In quis justo. Maecenas rhoncus aliquam lacus.","amount":5.79},
{"iban":"SM52 N928 4758 593P VB9M XMNK FJK","date":"21/09/2017","description":"In hac habitasse platea dictumst. Morbi vestibulum, velit id pretium iaculis, diam erat fermentum justo, nec condimentum neque sapien placerat ante. Nulla justo. Aliquam quis turpis eget elit sodales scelerisque. Mauris sit amet eros. Suspendisse accumsan tortor quis turpis. Sed ante. Vivamus tortor. Duis mattis egestas metus. Aenean fermentum.","amount":505.11},
{"iban":"CR16 2723 1133 1393 3835 9","date":"03/02/2017","description":"Suspendisse accumsan tortor quis turpis. Sed ante. Vivamus tortor.","amount":-896.92},
{"iban":"TN20 0813 1034 5466 8738 4604","date":"19/03/2017","description":"Maecenas leo odio, condimentum id, luctus nec, molestie sed, justo. Pellentesque viverra pede ac diam. Cras pellentesque volutpat dui. Maecenas tristique, est et tempus semper, est quam pharetra magna, ac consequat metus sapien ut nunc. Vestibulum ante ipsum primis in faucibus orci luctus et ultrices posuere cubilia Curae; Mauris viverra diam vitae quam. Suspendisse potenti.","amount":-958.3},
{"iban":"ME06 9111 0748 3175 0697 18","date":"15/02/2017","description":"Etiam pretium iaculis justo. In hac habitasse platea dictumst. Etiam faucibus cursus urna. Ut tellus. Nulla ut erat id mauris vulputate elementum. Nullam varius. Nulla facilisi.","amount":526.97},
{"iban":"FR74 0843 9011 60SC KRJ7 0XQH X23","date":"15/09/2017","description":"Nullam sit amet turpis elementum ligula vehicula consequat. Morbi a ipsum.","amount":268.62},
{"iban":"RO92 GVQD 5WUQ U2QI RE9V TAEN","date":"10/01/2018","description":"Praesent lectus. Vestibulum quam sapien, varius ut, blandit non, interdum in, ante. Vestibulum ante ipsum primis in faucibus orci luctus et ultrices posuere cubilia Curae; Duis faucibus accumsan odio. Curabitur convallis. Duis consequat dui nec nisi volutpat eleifend. Donec ut dolor. Morbi vel lectus in quam fringilla rhoncus. Mauris enim leo, rhoncus sed, vestibulum sit amet, cursus id, turpis. Integer aliquet, massa id lobortis convallis, tortor risus dapibus augue, vel accumsan tellus nisi eu orci. Mauris lacinia sapien quis libero.","amount":-864.62},
{"iban":"IE61 CZCR 5720 3173 5537 49","date":"17/10/2017","description":"Duis ac nibh.","amount":585.57},
{"iban":"PK58 ULPB RRWJ 3FRO WGMR VZHS","date":"29/01/2018","description":"Nulla neque libero, convallis eget, eleifend luctus, ultricies eu, nibh. Quisque id justo sit amet sapien dignissim vestibulum. Vestibulum ante ipsum primis in faucibus orci luctus et ultrices posuere cubilia Curae; Nulla dapibus dolor vel est. Donec odio justo, sollicitudin ut, suscipit a, feugiat et, eros. Vestibulum ac est lacinia nisi venenatis tristique. Fusce congue, diam id ornare imperdiet, sapien urna pretium nisl, ut volutpat sapien arcu sed augue.","amount":-89.98},
{"iban":"CR72 2012 4459 3184 2041 3","date":"10/07/2017","description":"Vestibulum ante ipsum primis in faucibus orci luctus et ultrices posuere cubilia Curae; Donec pharetra, magna vestibulum aliquet ultrices, erat tortor sollicitudin mi, sit amet lobortis sapien sapien non mi. Integer ac neque. Duis bibendum. Morbi non quam nec dui luctus rutrum. Nulla tellus. In sagittis dui vel nisl. Duis ac nibh. Fusce lacus purus, aliquet at, feugiat non, pretium quis, lectus.","amount":-904.29},
{"iban":"FR62 5117 6257 84BH JDPD FMVP M69","date":"05/07/2017","description":"Nulla tellus. In sagittis dui vel nisl. Duis ac nibh. Fusce lacus purus, aliquet at, feugiat non, pretium quis, lectus. Suspendisse potenti. In eleifend quam a odio. In hac habitasse platea dictumst. Maecenas ut massa quis augue luctus tincidunt.","amount":63.86},
{"iban":"CH07 3002 7LAD PQAS ISGM S","date":"13/03/2018","description":"Lorem ipsum dolor sit amet, consectetuer adipiscing elit. Proin interdum mauris non ligula pellentesque ultrices. Phasellus id sapien in sapien iaculis congue.","amount":-24.33},
{"iban":"PS43 TBGZ XQ2O WNZ3 CW42 NQQ4 8D7T B","date":"06/09/2017","description":"Etiam justo. Etiam pretium iaculis justo. In hac habitasse platea dictumst. Etiam faucibus cursus urna.","amount":-339.18},
{"iban":"DK12 8982 1614 1359 51","date":"16/01/2017","description":"Praesent blandit. Nam nulla. Integer pede justo, lacinia eget, tincidunt eget, tempus vel, pede. Morbi porttitor lorem id ligula. Suspendisse ornare consequat lectus. In est risus, auctor sed, tristique in, tempus sit amet, sem. Fusce consequat. Nulla nisl. Nunc nisl. Duis bibendum, felis sed interdum venenatis, turpis enim blandit mi, in porttitor pede justo eu massa.","amount":161.8},
{"iban":"FR43 2373 8647 93QU CVXV JNUZ S90","date":"18/04/2018","description":"Aenean fermentum. Donec ut mauris eget massa tempor convallis. Nulla neque libero, convallis eget, eleifend luctus, ultricies eu, nibh. Quisque id justo sit amet sapien dignissim vestibulum. Vestibulum ante ipsum primis in faucibus orci luctus et ultrices posuere cubilia Curae; Nulla dapibus dolor vel est. Donec odio justo, sollicitudin ut, suscipit a, feugiat et, eros.","amount":-640.43},
{"iban":"LI79 0152 1ODL SKOQ HDIR 4","date":"09/08/2017","description":"Integer non velit. Donec diam neque, vestibulum eget, vulputate ut, ultrices vel, augue.","amount":-268.28},
{"iban":"SK73 6175 4284 6086 1438 1362","date":"20/02/2018","description":"Quisque id justo sit amet sapien dignissim vestibulum. Vestibulum ante ipsum primis in faucibus orci luctus et ultrices posuere cubilia Curae; Nulla dapibus dolor vel est. Donec odio justo, sollicitudin ut, suscipit a, feugiat et, eros. Vestibulum ac est lacinia nisi venenatis tristique. Fusce congue, diam id ornare imperdiet, sapien urna pretium nisl, ut volutpat sapien arcu sed augue. Aliquam erat volutpat. In congue.","amount":522.2},
{"iban":"PT84 7243 2421 1099 6118 4007 5","date":"11/10/2017","description":"Proin at turpis a pede posuere nonummy. Integer non velit. Donec diam neque, vestibulum eget, vulputate ut, ultrices vel, augue. Vestibulum ante ipsum primis in faucibus orci luctus et ultrices posuere cubilia Curae; Donec pharetra, magna vestibulum aliquet ultrices, erat tortor sollicitudin mi, sit amet lobortis sapien sapien non mi.","amount":342.97},
{"iban":"CY60 0168 2413 X0NW TM8W 08UX EPKV","date":"28/11/2017","description":"Maecenas leo odio, condimentum id, luctus nec, molestie sed, justo. Pellentesque viverra pede ac diam. Cras pellentesque volutpat dui. Maecenas tristique, est et tempus semper, est quam pharetra magna, ac consequat metus sapien ut nunc. Vestibulum ante ipsum primis in faucibus orci luctus et ultrices posuere cubilia Curae; Mauris viverra diam vitae quam. Suspendisse potenti. Nullam porttitor lacus at turpis. Donec posuere metus vitae ipsum.","amount":-768.65},
{"iban":"SE57 5068 1815 8935 8846 7197","date":"09/12/2017","description":"Mauris lacinia sapien quis libero. Nullam sit amet turpis elementum ligula vehicula consequat. Morbi a ipsum. Integer a nibh. In quis justo. Maecenas rhoncus aliquam lacus. Morbi quis tortor id nulla ultrices aliquet. Maecenas leo odio, condimentum id, luctus nec, molestie sed, justo. Pellentesque viverra pede ac diam.","amount":-228.67},
{"iban":"GE43 LY38 2979 6109 1107 38","date":"05/03/2018","description":"Vivamus tortor. Duis mattis egestas metus.","amount":-359.69},
{"iban":"LU21 924U EMI8 PGDK TZLX","date":"05/03/2018","description":"In hac habitasse platea dictumst.","amount":-827.18},
{"iban":"LU75 9335 CJDO SMYM SYMN","date":"05/12/2017","description":"Phasellus sit amet erat. Nulla tempus. Vivamus in felis eu sapien cursus vestibulum. Proin eu mi. Nulla ac enim. In tempor, turpis nec euismod scelerisque, quam turpis adipiscing lorem, vitae mattis nibh ligula nec sem. Duis aliquam convallis nunc. Proin at turpis a pede posuere nonummy. Integer non velit.","amount":-160.2},
{"iban":"EE43 1028 3087 1505 0358","date":"03/03/2017","description":"Integer a nibh. In quis justo. Maecenas rhoncus aliquam lacus. Morbi quis tortor id nulla ultrices aliquet. Maecenas leo odio, condimentum id, luctus nec, molestie sed, justo. Pellentesque viverra pede ac diam. Cras pellentesque volutpat dui. Maecenas tristique, est et tempus semper, est quam pharetra magna, ac consequat metus sapien ut nunc.","amount":-875.68},
{"iban":"FR02 3529 5449 85G4 0QH6 OV0L X35","date":"13/10/2017","description":"Curabitur at ipsum ac tellus semper interdum. Mauris ullamcorper purus sit amet nulla.","amount":-911.04},
{"iban":"PK74 LQKO XOPW R3OE O02M IJVQ","date":"30/03/2017","description":"Nam dui. Proin leo odio, porttitor id, consequat in, consequat ut, nulla. Sed accumsan felis. Ut at dolor quis odio consequat varius. Integer ac leo.","amount":-585.87},
{"iban":"CH05 0194 6ZZO 6JFA BKKH L","date":"27/03/2017","description":"Aenean sit amet justo. Morbi ut odio. Cras mi pede, malesuada in, imperdiet et, commodo vulputate, justo. In blandit ultrices enim. Lorem ipsum dolor sit amet, consectetuer adipiscing elit. Proin interdum mauris non ligula pellentesque ultrices. Phasellus id sapien in sapien iaculis congue. Vivamus metus arcu, adipiscing molestie, hendrerit at, vulputate vitae, nisl. Aenean lectus.","amount":-813.18},
{"iban":"CZ80 3552 8135 0389 9849 8294","date":"17/04/2017","description":"Aenean lectus. Pellentesque eget nunc. Donec quis orci eget orci vehicula condimentum. Curabitur in libero ut massa volutpat convallis. Morbi odio odio, elementum eu, interdum eu, tincidunt in, leo.","amount":-876.06},
{"iban":"IS69 8404 9336 6967 0679 6145 26","date":"06/03/2017","description":"Duis mattis egestas metus. Aenean fermentum. Donec ut mauris eget massa tempor convallis. Nulla neque libero, convallis eget, eleifend luctus, ultricies eu, nibh. Quisque id justo sit amet sapien dignissim vestibulum. Vestibulum ante ipsum primis in faucibus orci luctus et ultrices posuere cubilia Curae; Nulla dapibus dolor vel est.","amount":-482.36},
{"iban":"VG33 SGCT 1619 0243 5032 7589","date":"15/01/2017","description":"Lorem ipsum dolor sit amet, consectetuer adipiscing elit. Proin risus.","amount":337.59},
{"iban":"SA29 73IQ CHST OAFS IQ7G JOGX","date":"16/08/2017","description":"Quisque porta volutpat erat. Quisque erat eros, viverra eget, congue eget, semper rutrum, nulla. Nunc purus. Phasellus in felis. Donec semper sapien a libero. Nam dui. Proin leo odio, porttitor id, consequat in, consequat ut, nulla. Sed accumsan felis. Ut at dolor quis odio consequat varius.","amount":-355.16},
{"iban":"GI19 STPI NDPX TD30 XGWJ LFI","date":"01/03/2017","description":"Maecenas tincidunt lacus at velit. Vivamus vel nulla eget eros elementum pellentesque. Quisque porta volutpat erat. Quisque erat eros, viverra eget, congue eget, semper rutrum, nulla. Nunc purus. Phasellus in felis. Donec semper sapien a libero. Nam dui.","amount":-751.91},
{"iban":"AT53 0981 8122 1184 9379","date":"22/01/2017","description":"Maecenas ut massa quis augue luctus tincidunt. Nulla mollis molestie lorem. Quisque ut erat. Curabitur gravida nisi at nibh. In hac habitasse platea dictumst. Aliquam augue quam, sollicitudin vitae, consectetuer eget, rutrum at, lorem. Integer tincidunt ante vel ipsum. Praesent blandit lacinia erat. Vestibulum sed magna at nunc commodo placerat. Praesent blandit.","amount":-54.26},
{"iban":"PS83 GRGU H117 SWT5 4UUQ D8OY OVU6 Q","date":"12/01/2017","description":"Lorem ipsum dolor sit amet, consectetuer adipiscing elit. Proin risus. Praesent lectus. Vestibulum quam sapien, varius ut, blandit non, interdum in, ante.","amount":133.45},
{"iban":"SE06 0675 0287 5938 2257 0988","date":"28/08/2017","description":"Mauris lacinia sapien quis libero. Nullam sit amet turpis elementum ligula vehicula consequat. Morbi a ipsum. Integer a nibh. In quis justo. Maecenas rhoncus aliquam lacus. Morbi quis tortor id nulla ultrices aliquet. Maecenas leo odio, condimentum id, luctus nec, molestie sed, justo. Pellentesque viverra pede ac diam.","amount":717.64},
{"iban":"MT62 XGBB 8172 2TMD ORH5 JLQF KWKV TDW","date":"22/05/2018","description":"Vestibulum ac est lacinia nisi venenatis tristique. Fusce congue, diam id ornare imperdiet, sapien urna pretium nisl, ut volutpat sapien arcu sed augue. Aliquam erat volutpat. In congue. Etiam justo. Etiam pretium iaculis justo. In hac habitasse platea dictumst.","amount":608.4},
{"iban":"FR52 0323 5854 61ZQ AG8I A1MD A28","date":"03/02/2018","description":"Vestibulum ante ipsum primis in faucibus orci luctus et ultrices posuere cubilia Curae; Duis faucibus accumsan odio. Curabitur convallis. Duis consequat dui nec nisi volutpat eleifend. Donec ut dolor. Morbi vel lectus in quam fringilla rhoncus.","amount":59.69},
{"iban":"RO62 TKFB EYPF H3CU N9OC A16N","date":"04/06/2017","description":"Duis mattis egestas metus. Aenean fermentum. Donec ut mauris eget massa tempor convallis. Nulla neque libero, convallis eget, eleifend luctus, ultricies eu, nibh.","amount":-705.99},
{"iban":"ME27 0489 5252 1782 6735 06","date":"08/01/2018","description":"Nam ultrices, libero non mattis pulvinar, nulla pede ullamcorper augue, a suscipit nulla elit ac nulla.","amount":211.47},
{"iban":"FR36 7427 8074 30ZD FB3I RHSC F16","date":"07/11/2017","description":"Aliquam non mauris.","amount":633.79},
{"iban":"LI89 4708 8VVO N5BH 31XF L","date":"19/11/2017","description":"Quisque erat eros, viverra eget, congue eget, semper rutrum, nulla. Nunc purus. Phasellus in felis. Donec semper sapien a libero. Nam dui. Proin leo odio, porttitor id, consequat in, consequat ut, nulla. Sed accumsan felis.","amount":-722.42},
{"iban":"CH93 2211 3CO8 N26B EBKY J","date":"17/01/2018","description":"Vestibulum ac est lacinia nisi venenatis tristique. Fusce congue, diam id ornare imperdiet, sapien urna pretium nisl, ut volutpat sapien arcu sed augue. Aliquam erat volutpat. In congue. Etiam justo. Etiam pretium iaculis justo. In hac habitasse platea dictumst. Etiam faucibus cursus urna.","amount":-788.04},
{"iban":"FR18 7918 6933 87L6 OOSY WWML A98","date":"24/10/2017","description":"In blandit ultrices enim. Lorem ipsum dolor sit amet, consectetuer adipiscing elit.","amount":394.6},
{"iban":"FR28 3279 6948 18PK 8LF2 ZWFR S95","date":"01/12/2017","description":"Morbi ut odio. Cras mi pede, malesuada in, imperdiet et, commodo vulputate, justo. In blandit ultrices enim. Lorem ipsum dolor sit amet, consectetuer adipiscing elit. Proin interdum mauris non ligula pellentesque ultrices. Phasellus id sapien in sapien iaculis congue. Vivamus metus arcu, adipiscing molestie, hendrerit at, vulputate vitae, nisl. Aenean lectus. Pellentesque eget nunc. Donec quis orci eget orci vehicula condimentum.","amount":502.67},
{"iban":"FR10 2248 4017 020K 8LZU RXNZ M12","date":"26/12/2017","description":"Donec odio justo, sollicitudin ut, suscipit a, feugiat et, eros. Vestibulum ac est lacinia nisi venenatis tristique. Fusce congue, diam id ornare imperdiet, sapien urna pretium nisl, ut volutpat sapien arcu sed augue.","amount":-414.98},
{"iban":"IS42 3446 4519 6995 4511 6165 91","date":"22/02/2018","description":"Morbi non quam nec dui luctus rutrum. Nulla tellus. In sagittis dui vel nisl. Duis ac nibh. Fusce lacus purus, aliquet at, feugiat non, pretium quis, lectus.","amount":821.81},
{"iban":"MT31 YDFE 2935 1IMT IJC5 PXEN KXL3 AJO","date":"18/06/2017","description":"Donec posuere metus vitae ipsum. Aliquam non mauris. Morbi non lectus. Aliquam sit amet diam in magna bibendum imperdiet. Nullam orci pede, venenatis non, sodales sed, tincidunt eu, felis. Fusce posuere felis sed lacus. Morbi sem mauris, laoreet ut, rhoncus aliquet, pulvinar sed, nisl. Nunc rhoncus dui vel sem.","amount":-205.57},
{"iban":"FR73 3373 4223 60T1 A7VX LXUR Y55","date":"01/08/2017","description":"Cum sociis natoque penatibus et magnis dis parturient montes, nascetur ridiculus mus. Etiam vel augue. Vestibulum rutrum rutrum neque. Aenean auctor gravida sem. Praesent id massa id nisl venenatis lacinia. Aenean sit amet justo. Morbi ut odio. Cras mi pede, malesuada in, imperdiet et, commodo vulputate, justo.","amount":256.66},
{"iban":"BR85 4988 1896 5312 6854 2153 211L U","date":"21/12/2017","description":"In congue. Etiam justo. Etiam pretium iaculis justo. In hac habitasse platea dictumst. Etiam faucibus cursus urna. Ut tellus. Nulla ut erat id mauris vulputate elementum. Nullam varius. Nulla facilisi. Cras non velit nec nisi vulputate nonummy.","amount":563.95},
{"iban":"FR79 2370 7060 432N QV2G MSSN G41","date":"22/08/2017","description":"Morbi a ipsum.","amount":-709.7},
{"iban":"PK35 TNSD ULSV AVYO XICM LNKA","date":"31/12/2017","description":"Aliquam augue quam, sollicitudin vitae, consectetuer eget, rutrum at, lorem. Integer tincidunt ante vel ipsum. Praesent blandit lacinia erat.","amount":-302.04},
{"iban":"AT75 8004 2242 6246 7560","date":"21/05/2018","description":"Lorem ipsum dolor sit amet, consectetuer adipiscing elit. Proin interdum mauris non ligula pellentesque ultrices. Phasellus id sapien in sapien iaculis congue. Vivamus metus arcu, adipiscing molestie, hendrerit at, vulputate vitae, nisl. Aenean lectus.","amount":34.11},
{"iban":"DO47 JTTN 6773 0281 1236 0414 3550","date":"07/05/2017","description":"Phasellus id sapien in sapien iaculis congue. Vivamus metus arcu, adipiscing molestie, hendrerit at, vulputate vitae, nisl. Aenean lectus.","amount":-398.84},
{"iban":"GT34 NZFH L2GK J3UM C7OL 9IEK IPQW","date":"16/01/2017","description":"Integer ac leo. Pellentesque ultrices mattis odio. Donec vitae nisi. Nam ultrices, libero non mattis pulvinar, nulla pede ullamcorper augue, a suscipit nulla elit ac nulla. Sed vel enim sit amet nunc viverra dapibus. Nulla suscipit ligula in lacus. Curabitur at ipsum ac tellus semper interdum.","amount":-781.14},
{"iban":"BE66 7919 4455 4622","date":"04/02/2018","description":"Cras in purus eu magna vulputate luctus. Cum sociis natoque penatibus et magnis dis parturient montes, nascetur ridiculus mus. Vivamus vestibulum sagittis sapien. Cum sociis natoque penatibus et magnis dis parturient montes, nascetur ridiculus mus.","amount":-746.11},
{"iban":"GB89 RMDM 9384 4562 0455 69","date":"25/08/2017","description":"Duis mattis egestas metus. Aenean fermentum. Donec ut mauris eget massa tempor convallis. Nulla neque libero, convallis eget, eleifend luctus, ultricies eu, nibh. Quisque id justo sit amet sapien dignissim vestibulum. Vestibulum ante ipsum primis in faucibus orci luctus et ultrices posuere cubilia Curae; Nulla dapibus dolor vel est. Donec odio justo, sollicitudin ut, suscipit a, feugiat et, eros. Vestibulum ac est lacinia nisi venenatis tristique.","amount":-22.03},
{"iban":"IT46 C426 3591 184P CYSU FLIB SYB","date":"02/09/2017","description":"Nullam orci pede, venenatis non, sodales sed, tincidunt eu, felis.","amount":935.74},
{"iban":"DK92 2083 0424 8224 64","date":"27/02/2018","description":"Aenean fermentum. Donec ut mauris eget massa tempor convallis. Nulla neque libero, convallis eget, eleifend luctus, ultricies eu, nibh. Quisque id justo sit amet sapien dignissim vestibulum. Vestibulum ante ipsum primis in faucibus orci luctus et ultrices posuere cubilia Curae; Nulla dapibus dolor vel est.","amount":-703.06},
{"iban":"SK03 1867 1706 1752 2974 0103","date":"05/11/2017","description":"Aenean auctor gravida sem. Praesent id massa id nisl venenatis lacinia. Aenean sit amet justo. Morbi ut odio. Cras mi pede, malesuada in, imperdiet et, commodo vulputate, justo. In blandit ultrices enim. Lorem ipsum dolor sit amet, consectetuer adipiscing elit. Proin interdum mauris non ligula pellentesque ultrices.","amount":27.96},
{"iban":"LV08 HBMA J5Y9 EMM7 83F0 V","date":"20/10/2017","description":"Phasellus sit amet erat. Nulla tempus. Vivamus in felis eu sapien cursus vestibulum. Proin eu mi. Nulla ac enim. In tempor, turpis nec euismod scelerisque, quam turpis adipiscing lorem, vitae mattis nibh ligula nec sem. Duis aliquam convallis nunc.","amount":-306.27},
{"iban":"GL32 0495 6089 3998 25","date":"05/03/2017","description":"Morbi quis tortor id nulla ultrices aliquet. Maecenas leo odio, condimentum id, luctus nec, molestie sed, justo.","amount":-751.46},
{"iban":"FR40 2620 2662 38JL GZKR HD5R T08","date":"09/09/2017","description":"Morbi sem mauris, laoreet ut, rhoncus aliquet, pulvinar sed, nisl.","amount":-442.19},
{"iban":"LT54 0044 0502 8757 4226","date":"12/11/2017","description":"Fusce congue, diam id ornare imperdiet, sapien urna pretium nisl, ut volutpat sapien arcu sed augue. Aliquam erat volutpat.","amount":-833.62},
{"iban":"GT37 N58W X42A 2PI1 QU4A UZNK OTIS","date":"15/01/2017","description":"Cum sociis natoque penatibus et magnis dis parturient montes, nascetur ridiculus mus. Etiam vel augue. Vestibulum rutrum rutrum neque. Aenean auctor gravida sem. Praesent id massa id nisl venenatis lacinia. Aenean sit amet justo. Morbi ut odio.","amount":518.66},
{"iban":"PT27 5476 0256 6815 9403 5356 9","date":"20/12/2017","description":"Aliquam non mauris. Morbi non lectus. Aliquam sit amet diam in magna bibendum imperdiet. Nullam orci pede, venenatis non, sodales sed, tincidunt eu, felis. Fusce posuere felis sed lacus. Morbi sem mauris, laoreet ut, rhoncus aliquet, pulvinar sed, nisl. Nunc rhoncus dui vel sem. Sed sagittis. Nam congue, risus semper porta volutpat, quam pede lobortis ligula, sit amet eleifend pede libero quis orci. Nullam molestie nibh in lectus.","amount":337.75},
{"iban":"VG12 DUGE 3093 5080 4185 6890","date":"19/07/2017","description":"Integer a nibh. In quis justo. Maecenas rhoncus aliquam lacus. Morbi quis tortor id nulla ultrices aliquet. Maecenas leo odio, condimentum id, luctus nec, molestie sed, justo. Pellentesque viverra pede ac diam. Cras pellentesque volutpat dui. Maecenas tristique, est et tempus semper, est quam pharetra magna, ac consequat metus sapien ut nunc. Vestibulum ante ipsum primis in faucibus orci luctus et ultrices posuere cubilia Curae; Mauris viverra diam vitae quam. Suspendisse potenti.","amount":-11.82},
{"iban":"LT12 1317 1295 4547 4326","date":"11/01/2017","description":"Nullam molestie nibh in lectus. Pellentesque at nulla. Suspendisse potenti. Cras in purus eu magna vulputate luctus. Cum sociis natoque penatibus et magnis dis parturient montes, nascetur ridiculus mus. Vivamus vestibulum sagittis sapien. Cum sociis natoque penatibus et magnis dis parturient montes, nascetur ridiculus mus. Etiam vel augue. Vestibulum rutrum rutrum neque.","amount":-521.42},
{"iban":"TR64 1077 1QRB ZPA4 6PM5 M4TQ VB","date":"04/11/2017","description":"Phasellus id sapien in sapien iaculis congue.","amount":-717.71},
{"iban":"GR21 0565 437K 6ILG 5AMH YUA7 EWP","date":"24/10/2017","description":"Morbi vel lectus in quam fringilla rhoncus. Mauris enim leo, rhoncus sed, vestibulum sit amet, cursus id, turpis. Integer aliquet, massa id lobortis convallis, tortor risus dapibus augue, vel accumsan tellus nisi eu orci. Mauris lacinia sapien quis libero. Nullam sit amet turpis elementum ligula vehicula consequat. Morbi a ipsum. Integer a nibh.","amount":-237.53},
{"iban":"DE30 6134 9065 8215 0691 29","date":"27/07/2017","description":"Morbi non quam nec dui luctus rutrum. Nulla tellus. In sagittis dui vel nisl. Duis ac nibh. Fusce lacus purus, aliquet at, feugiat non, pretium quis, lectus.","amount":29.7},
{"iban":"HR36 9133 3878 5658 2694 4","date":"12/02/2018","description":"Morbi a ipsum. Integer a nibh. In quis justo. Maecenas rhoncus aliquam lacus. Morbi quis tortor id nulla ultrices aliquet. Maecenas leo odio, condimentum id, luctus nec, molestie sed, justo. Pellentesque viverra pede ac diam. Cras pellentesque volutpat dui. Maecenas tristique, est et tempus semper, est quam pharetra magna, ac consequat metus sapien ut nunc.","amount":-939.43},
{"iban":"DE23 2704 4390 0917 8177 19","date":"16/02/2017","description":"Nam nulla. Integer pede justo, lacinia eget, tincidunt eget, tempus vel, pede. Morbi porttitor lorem id ligula. Suspendisse ornare consequat lectus. In est risus, auctor sed, tristique in, tempus sit amet, sem. Fusce consequat. Nulla nisl. Nunc nisl.","amount":-82.83},
{"iban":"FR21 5177 5170 12TT UDHL MEZT U68","date":"02/08/2017","description":"Vivamus vel nulla eget eros elementum pellentesque. Quisque porta volutpat erat. Quisque erat eros, viverra eget, congue eget, semper rutrum, nulla. Nunc purus.","amount":-309.99},
{"iban":"IT18 M318 3643 141P NDNN EIXW EIZ","date":"18/08/2017","description":"Morbi non quam nec dui luctus rutrum. Nulla tellus. In sagittis dui vel nisl.","amount":319.2},
{"iban":"MD32 KIS2 JB83 P2HV XART MEWT","date":"07/01/2018","description":"Nulla tempus.","amount":267.92},
{"iban":"CZ69 1637 1324 5162 5460 2417","date":"08/02/2018","description":"Proin risus. Praesent lectus. Vestibulum quam sapien, varius ut, blandit non, interdum in, ante. Vestibulum ante ipsum primis in faucibus orci luctus et ultrices posuere cubilia Curae; Duis faucibus accumsan odio. Curabitur convallis.","amount":-625.29},
{"iban":"CZ13 2243 3767 7834 9377 4462","date":"04/07/2017","description":"Nulla suscipit ligula in lacus. Curabitur at ipsum ac tellus semper interdum. Mauris ullamcorper purus sit amet nulla. Quisque arcu libero, rutrum ac, lobortis vel, dapibus at, diam.","amount":811.49},
{"iban":"DE18 1693 0560 9928 1581 05","date":"19/06/2017","description":"In sagittis dui vel nisl. Duis ac nibh. Fusce lacus purus, aliquet at, feugiat non, pretium quis, lectus.","amount":638.77},
{"iban":"BE25 2769 8168 7592","date":"14/05/2017","description":"Sed sagittis. Nam congue, risus semper porta volutpat, quam pede lobortis ligula, sit amet eleifend pede libero quis orci. Nullam molestie nibh in lectus. Pellentesque at nulla. Suspendisse potenti. Cras in purus eu magna vulputate luctus.","amount":554.53},
{"iban":"LV57 FMTB 1YJW GINN 4YEY X","date":"24/02/2017","description":"Integer ac leo. Pellentesque ultrices mattis odio. Donec vitae nisi. Nam ultrices, libero non mattis pulvinar, nulla pede ullamcorper augue, a suscipit nulla elit ac nulla. Sed vel enim sit amet nunc viverra dapibus. Nulla suscipit ligula in lacus. Curabitur at ipsum ac tellus semper interdum. Mauris ullamcorper purus sit amet nulla.","amount":-837.17},
{"iban":"SI03 3069 6982 8689 281","date":"02/11/2017","description":"Mauris sit amet eros. Suspendisse accumsan tortor quis turpis. Sed ante. Vivamus tortor. Duis mattis egestas metus. Aenean fermentum. Donec ut mauris eget massa tempor convallis.","amount":-188.91},
{"iban":"AE09 5199 0766 5761 2430 224","date":"13/09/2017","description":"Pellentesque viverra pede ac diam. Cras pellentesque volutpat dui. Maecenas tristique, est et tempus semper, est quam pharetra magna, ac consequat metus sapien ut nunc. Vestibulum ante ipsum primis in faucibus orci luctus et ultrices posuere cubilia Curae; Mauris viverra diam vitae quam.","amount":662.83},
{"iban":"HR88 6767 4864 2232 8469 6","date":"24/03/2018","description":"In blandit ultrices enim. Lorem ipsum dolor sit amet, consectetuer adipiscing elit. Proin interdum mauris non ligula pellentesque ultrices. Phasellus id sapien in sapien iaculis congue. Vivamus metus arcu, adipiscing molestie, hendrerit at, vulputate vitae, nisl. Aenean lectus.","amount":222.78},
{"iban":"BH17 VSNF 5GYD GLMT YWLA UO","date":"11/02/2018","description":"Duis aliquam convallis nunc. Proin at turpis a pede posuere nonummy. Integer non velit. Donec diam neque, vestibulum eget, vulputate ut, ultrices vel, augue. Vestibulum ante ipsum primis in faucibus orci luctus et ultrices posuere cubilia Curae; Donec pharetra, magna vestibulum aliquet ultrices, erat tortor sollicitudin mi, sit amet lobortis sapien sapien non mi. Integer ac neque. Duis bibendum.","amount":383.57},
{"iban":"IT67 L176 7436 962Z IVQ7 URE5 OCK","date":"16/01/2018","description":"Nulla tempus. Vivamus in felis eu sapien cursus vestibulum.","amount":784.05},
{"iban":"SM30 E851 5613 3249 5MTL 2GMF Q9N","date":"10/02/2017","description":"Maecenas tincidunt lacus at velit. Vivamus vel nulla eget eros elementum pellentesque. Quisque porta volutpat erat. Quisque erat eros, viverra eget, congue eget, semper rutrum, nulla.","amount":967.49},
{"iban":"FR93 0576 5558 28I3 P7WB YVPW Q65","date":"16/03/2017","description":"Nam dui. Proin leo odio, porttitor id, consequat in, consequat ut, nulla. Sed accumsan felis. Ut at dolor quis odio consequat varius. Integer ac leo.","amount":-529.44},
{"iban":"CY56 5539 2390 BVOM JVJV B5CD BX5N","date":"11/02/2017","description":"Donec posuere metus vitae ipsum. Aliquam non mauris. Morbi non lectus.","amount":-875.32},
{"iban":"MU34 AITF 1230 6077 7747 8051 579R BI","date":"20/09/2017","description":"In blandit ultrices enim. Lorem ipsum dolor sit amet, consectetuer adipiscing elit. Proin interdum mauris non ligula pellentesque ultrices. Phasellus id sapien in sapien iaculis congue. Vivamus metus arcu, adipiscing molestie, hendrerit at, vulputate vitae, nisl. Aenean lectus.","amount":377.18},
{"iban":"AZ95 ZGAZ RJG1 OZXI ZILR DDWW HJUK","date":"25/09/2017","description":"Donec ut dolor. Morbi vel lectus in quam fringilla rhoncus. Mauris enim leo, rhoncus sed, vestibulum sit amet, cursus id, turpis. Integer aliquet, massa id lobortis convallis, tortor risus dapibus augue, vel accumsan tellus nisi eu orci. Mauris lacinia sapien quis libero.","amount":566.3},
{"iban":"CR16 1073 7966 9181 8318 3","date":"30/10/2017","description":"Nulla tempus. Vivamus in felis eu sapien cursus vestibulum. Proin eu mi. Nulla ac enim. In tempor, turpis nec euismod scelerisque, quam turpis adipiscing lorem, vitae mattis nibh ligula nec sem. Duis aliquam convallis nunc. Proin at turpis a pede posuere nonummy. Integer non velit. Donec diam neque, vestibulum eget, vulputate ut, ultrices vel, augue.","amount":-252.48},
{"iban":"BG10 VMNB 8512 58SH TMUI BI","date":"23/04/2017","description":"Integer non velit. Donec diam neque, vestibulum eget, vulputate ut, ultrices vel, augue. Vestibulum ante ipsum primis in faucibus orci luctus et ultrices posuere cubilia Curae; Donec pharetra, magna vestibulum aliquet ultrices, erat tortor sollicitudin mi, sit amet lobortis sapien sapien non mi. Integer ac neque. Duis bibendum. Morbi non quam nec dui luctus rutrum.","amount":-539.82},
{"iban":"BE97 4110 8888 2648","date":"18/12/2017","description":"Nullam sit amet turpis elementum ligula vehicula consequat. Morbi a ipsum. Integer a nibh. In quis justo.","amount":-631.75},
{"iban":"BH52 TWUQ ITMN V6TR SJ17 41","date":"14/08/2017","description":"Fusce lacus purus, aliquet at, feugiat non, pretium quis, lectus. Suspendisse potenti. In eleifend quam a odio. In hac habitasse platea dictumst.","amount":142.95},
{"iban":"MR82 5045 9436 4776 7702 4300 180","date":"10/01/2018","description":"Curabitur in libero ut massa volutpat convallis. Morbi odio odio, elementum eu, interdum eu, tincidunt in, leo. Maecenas pulvinar lobortis est. Phasellus sit amet erat. Nulla tempus. Vivamus in felis eu sapien cursus vestibulum. Proin eu mi. Nulla ac enim. In tempor, turpis nec euismod scelerisque, quam turpis adipiscing lorem, vitae mattis nibh ligula nec sem.","amount":-498.06},
{"iban":"AT62 5123 2860 0584 2782","date":"03/06/2017","description":"Nulla mollis molestie lorem. Quisque ut erat. Curabitur gravida nisi at nibh. In hac habitasse platea dictumst.","amount":98.29},
{"iban":"MK05 6067 0N4I 5JTX S11","date":"24/03/2017","description":"In eleifend quam a odio. In hac habitasse platea dictumst. Maecenas ut massa quis augue luctus tincidunt. Nulla mollis molestie lorem. Quisque ut erat. Curabitur gravida nisi at nibh. In hac habitasse platea dictumst.","amount":-276.53},
{"iban":"RS73 7725 9796 7210 1249 05","date":"31/10/2017","description":"Maecenas tristique, est et tempus semper, est quam pharetra magna, ac consequat metus sapien ut nunc. Vestibulum ante ipsum primis in faucibus orci luctus et ultrices posuere cubilia Curae; Mauris viverra diam vitae quam. Suspendisse potenti. Nullam porttitor lacus at turpis. Donec posuere metus vitae ipsum. Aliquam non mauris.","amount":-461.17},
{"iban":"FR15 9583 8694 770Q T26I RUDP F55","date":"25/09/2017","description":"Etiam vel augue.","amount":24.85},
{"iban":"FO29 8262 8235 7435 62","date":"16/03/2018","description":"In blandit ultrices enim. Lorem ipsum dolor sit amet, consectetuer adipiscing elit. Proin interdum mauris non ligula pellentesque ultrices. Phasellus id sapien in sapien iaculis congue. Vivamus metus arcu, adipiscing molestie, hendrerit at, vulputate vitae, nisl. Aenean lectus. Pellentesque eget nunc.","amount":175.1},
{"iban":"FR16 9126 9168 72QH MLCF 3OC7 G63","date":"12/03/2017","description":"Phasellus id sapien in sapien iaculis congue. Vivamus metus arcu, adipiscing molestie, hendrerit at, vulputate vitae, nisl. Aenean lectus. Pellentesque eget nunc. Donec quis orci eget orci vehicula condimentum. Curabitur in libero ut massa volutpat convallis. Morbi odio odio, elementum eu, interdum eu, tincidunt in, leo. Maecenas pulvinar lobortis est. Phasellus sit amet erat. Nulla tempus.","amount":677.58},
{"iban":"FR26 4408 9863 30WB YGLG E7YU R95","date":"11/03/2017","description":"Cras non velit nec nisi vulputate nonummy. Maecenas tincidunt lacus at velit. Vivamus vel nulla eget eros elementum pellentesque. Quisque porta volutpat erat. Quisque erat eros, viverra eget, congue eget, semper rutrum, nulla.","amount":525.49},
{"iban":"SA68 17N6 AFGQ SPI8 B9KE HLV2","date":"10/03/2018","description":"Quisque porta volutpat erat. Quisque erat eros, viverra eget, congue eget, semper rutrum, nulla. Nunc purus. Phasellus in felis. Donec semper sapien a libero. Nam dui. Proin leo odio, porttitor id, consequat in, consequat ut, nulla.","amount":-991.45},
{"iban":"FR68 8999 1830 71EM GS8U 8DPA W51","date":"19/08/2017","description":"Mauris enim leo, rhoncus sed, vestibulum sit amet, cursus id, turpis. Integer aliquet, massa id lobortis convallis, tortor risus dapibus augue, vel accumsan tellus nisi eu orci. Mauris lacinia sapien quis libero. Nullam sit amet turpis elementum ligula vehicula consequat. Morbi a ipsum. Integer a nibh. In quis justo. Maecenas rhoncus aliquam lacus. Morbi quis tortor id nulla ultrices aliquet.","amount":848.65},
{"iban":"PS93 UCRV 81GZ C9EP 378B 132P CPET 3","date":"05/07/2017","description":"Vestibulum ante ipsum primis in faucibus orci luctus et ultrices posuere cubilia Curae; Mauris viverra diam vitae quam. Suspendisse potenti. Nullam porttitor lacus at turpis. Donec posuere metus vitae ipsum. Aliquam non mauris. Morbi non lectus. Aliquam sit amet diam in magna bibendum imperdiet.","amount":166.09},
{"iban":"BA05 4679 4390 1271 5108","date":"09/10/2017","description":"Maecenas rhoncus aliquam lacus. Morbi quis tortor id nulla ultrices aliquet. Maecenas leo odio, condimentum id, luctus nec, molestie sed, justo. Pellentesque viverra pede ac diam.","amount":927.35},
{"iban":"FR62 5792 9201 35SX TXEA OFPF G48","date":"28/01/2017","description":"Nulla ut erat id mauris vulputate elementum. Nullam varius. Nulla facilisi. Cras non velit nec nisi vulputate nonummy. Maecenas tincidunt lacus at velit. Vivamus vel nulla eget eros elementum pellentesque. Quisque porta volutpat erat. Quisque erat eros, viverra eget, congue eget, semper rutrum, nulla.","amount":850.66},
{"iban":"AZ03 SOOL OD77 QDYP BDNU EGCN LEOM","date":"13/04/2018","description":"Duis bibendum. Morbi non quam nec dui luctus rutrum. Nulla tellus. In sagittis dui vel nisl. Duis ac nibh. Fusce lacus purus, aliquet at, feugiat non, pretium quis, lectus. Suspendisse potenti. In eleifend quam a odio. In hac habitasse platea dictumst.","amount":-11.82},
{"iban":"AD07 5636 0298 7XMH G9LS JHSE","date":"28/08/2017","description":"Aliquam non mauris.","amount":-813.36},
{"iban":"SK73 5082 7636 6738 7596 2232","date":"10/02/2018","description":"Aenean fermentum.","amount":115.52},
{"iban":"MT83 DNGP 7458 1EG1 H3JO XMVI 834P TRJ","date":"10/12/2017","description":"Maecenas pulvinar lobortis est. Phasellus sit amet erat. Nulla tempus. Vivamus in felis eu sapien cursus vestibulum. Proin eu mi.","amount":191.11},
{"iban":"GR17 1192 875K N0UU 8UZA SELR E2O","date":"16/04/2018","description":"Vestibulum quam sapien, varius ut, blandit non, interdum in, ante. Vestibulum ante ipsum primis in faucibus orci luctus et ultrices posuere cubilia Curae; Duis faucibus accumsan odio.","amount":831.78},
{"iban":"IS46 4834 6487 4403 4145 7952 33","date":"18/05/2017","description":"Morbi ut odio.","amount":-945.75},
{"iban":"CR16 7784 9091 3953 3871 9","date":"17/03/2017","description":"Vestibulum ante ipsum primis in faucibus orci luctus et ultrices posuere cubilia Curae; Mauris viverra diam vitae quam. Suspendisse potenti. Nullam porttitor lacus at turpis.","amount":-431.82},
{"iban":"FR42 3506 5742 08VZ TDFC NRGJ P97","date":"09/11/2017","description":"Nunc purus. Phasellus in felis. Donec semper sapien a libero. Nam dui. Proin leo odio, porttitor id, consequat in, consequat ut, nulla.","amount":93.13},
{"iban":"LV50 ZJTJ UEQ9 AFWB VHQQ F","date":"07/01/2018","description":"Suspendisse potenti. In eleifend quam a odio. In hac habitasse platea dictumst. Maecenas ut massa quis augue luctus tincidunt. Nulla mollis molestie lorem. Quisque ut erat.","amount":-438.91},
{"iban":"VG44 GFPN 5724 3177 8367 4122","date":"07/05/2017","description":"Donec ut dolor.","amount":-850.82},
{"iban":"SK93 9733 7367 5166 7985 4245","date":"17/03/2018","description":"Nam nulla. Integer pede justo, lacinia eget, tincidunt eget, tempus vel, pede. Morbi porttitor lorem id ligula. Suspendisse ornare consequat lectus. In est risus, auctor sed, tristique in, tempus sit amet, sem. Fusce consequat.","amount":-360.7},
{"iban":"SM84 N281 8009 793A D9NN ILAP BOT","date":"22/12/2017","description":"Duis consequat dui nec nisi volutpat eleifend.","amount":-632.34},
{"iban":"LV90 UNYY DOZF HUAL KMGN S","date":"26/10/2017","description":"Aenean auctor gravida sem. Praesent id massa id nisl venenatis lacinia. Aenean sit amet justo. Morbi ut odio.","amount":-539.68},
{"iban":"HU15 5098 1014 8479 2517 1588 9289","date":"06/11/2017","description":"Cum sociis natoque penatibus et magnis dis parturient montes, nascetur ridiculus mus. Vivamus vestibulum sagittis sapien. Cum sociis natoque penatibus et magnis dis parturient montes, nascetur ridiculus mus. Etiam vel augue. Vestibulum rutrum rutrum neque. Aenean auctor gravida sem. Praesent id massa id nisl venenatis lacinia.","amount":861.05},
{"iban":"AZ51 MRWX GLCM HXFJ 1IT7 SDJW GP7L","date":"06/12/2017","description":"Fusce consequat. Nulla nisl. Nunc nisl. Duis bibendum, felis sed interdum venenatis, turpis enim blandit mi, in porttitor pede justo eu massa. Donec dapibus.","amount":-131.69},
{"iban":"FR59 2722 1191 129K 8JC9 9EO6 A34","date":"29/04/2017","description":"Integer pede justo, lacinia eget, tincidunt eget, tempus vel, pede. Morbi porttitor lorem id ligula. Suspendisse ornare consequat lectus. In est risus, auctor sed, tristique in, tempus sit amet, sem. Fusce consequat. Nulla nisl.","amount":945.97},
{"iban":"FR35 0006 5759 66W4 RBHS MIHB H82","date":"09/11/2017","description":"Pellentesque ultrices mattis odio. Donec vitae nisi. Nam ultrices, libero non mattis pulvinar, nulla pede ullamcorper augue, a suscipit nulla elit ac nulla.","amount":-757.32},
{"iban":"AE22 4550 6436 2752 2065 307","date":"26/07/2017","description":"Proin leo odio, porttitor id, consequat in, consequat ut, nulla. Sed accumsan felis. Ut at dolor quis odio consequat varius. Integer ac leo. Pellentesque ultrices mattis odio. Donec vitae nisi.","amount":-850.08},
{"iban":"LV96 VTRX 0ZTI ITGL H8HX M","date":"07/02/2018","description":"Cum sociis natoque penatibus et magnis dis parturient montes, nascetur ridiculus mus. Vivamus vestibulum sagittis sapien. Cum sociis natoque penatibus et magnis dis parturient montes, nascetur ridiculus mus. Etiam vel augue. Vestibulum rutrum rutrum neque. Aenean auctor gravida sem. Praesent id massa id nisl venenatis lacinia. Aenean sit amet justo. Morbi ut odio.","amount":110.47},
{"iban":"GE31 QA06 7234 1673 8069 84","date":"17/04/2018","description":"Donec quis orci eget orci vehicula condimentum. Curabitur in libero ut massa volutpat convallis. Morbi odio odio, elementum eu, interdum eu, tincidunt in, leo. Maecenas pulvinar lobortis est.","amount":713.88},
{"iban":"NO18 0857 0684 782","date":"19/11/2017","description":"Vestibulum rutrum rutrum neque. Aenean auctor gravida sem.","amount":-549.75},
{"iban":"GT82 9FBC MI99 ECPX 0MXG T6H9 WFUO","date":"20/11/2017","description":"Nullam porttitor lacus at turpis. Donec posuere metus vitae ipsum. Aliquam non mauris.","amount":26.76},
{"iban":"AE45 1506 1310 7874 4860 460","date":"07/08/2017","description":"Morbi non quam nec dui luctus rutrum. Nulla tellus.","amount":334.59},
{"iban":"LU83 551J PAS3 5SVM WS4J","date":"07/09/2017","description":"Aliquam sit amet diam in magna bibendum imperdiet. Nullam orci pede, venenatis non, sodales sed, tincidunt eu, felis. Fusce posuere felis sed lacus. Morbi sem mauris, laoreet ut, rhoncus aliquet, pulvinar sed, nisl. Nunc rhoncus dui vel sem. Sed sagittis.","amount":168.4},
{"iban":"FR86 9317 4838 944B SIEV YXEA 333","date":"17/06/2017","description":"Phasellus in felis. Donec semper sapien a libero. Nam dui. Proin leo odio, porttitor id, consequat in, consequat ut, nulla. Sed accumsan felis. Ut at dolor quis odio consequat varius.","amount":-27.13},
{"iban":"FR89 4398 1226 46XJ WB86 TEYA 113","date":"17/04/2017","description":"Nulla neque libero, convallis eget, eleifend luctus, ultricies eu, nibh. Quisque id justo sit amet sapien dignissim vestibulum.","amount":83.33},
{"iban":"FO28 9521 8068 5541 87","date":"27/01/2017","description":"Aenean lectus. Pellentesque eget nunc. Donec quis orci eget orci vehicula condimentum. Curabitur in libero ut massa volutpat convallis. Morbi odio odio, elementum eu, interdum eu, tincidunt in, leo. Maecenas pulvinar lobortis est.","amount":-777.82},
{"iban":"ME37 0071 0214 3310 4564 38","date":"18/02/2018","description":"Nullam orci pede, venenatis non, sodales sed, tincidunt eu, felis. Fusce posuere felis sed lacus. Morbi sem mauris, laoreet ut, rhoncus aliquet, pulvinar sed, nisl. Nunc rhoncus dui vel sem. Sed sagittis. Nam congue, risus semper porta volutpat, quam pede lobortis ligula, sit amet eleifend pede libero quis orci. Nullam molestie nibh in lectus. Pellentesque at nulla.","amount":-656.96},
{"iban":"FR55 5845 8186 91FF QRZY PPLL W27","date":"17/10/2017","description":"Sed accumsan felis. Ut at dolor quis odio consequat varius. Integer ac leo.","amount":612.8},
{"iban":"PK20 GICZ P38G 1NWB NUYK UION","date":"02/05/2018","description":"In blandit ultrices enim. Lorem ipsum dolor sit amet, consectetuer adipiscing elit. Proin interdum mauris non ligula pellentesque ultrices. Phasellus id sapien in sapien iaculis congue. Vivamus metus arcu, adipiscing molestie, hendrerit at, vulputate vitae, nisl. Aenean lectus. Pellentesque eget nunc.","amount":651.64},
{"iban":"DK15 1375 0770 3262 73","date":"13/09/2017","description":"Maecenas tincidunt lacus at velit. Vivamus vel nulla eget eros elementum pellentesque. Quisque porta volutpat erat. Quisque erat eros, viverra eget, congue eget, semper rutrum, nulla.","amount":-126.89},
{"iban":"FR59 9474 3935 280H 9NVC XIVP F89","date":"12/08/2017","description":"In hac habitasse platea dictumst. Maecenas ut massa quis augue luctus tincidunt. Nulla mollis molestie lorem. Quisque ut erat. Curabitur gravida nisi at nibh. In hac habitasse platea dictumst. Aliquam augue quam, sollicitudin vitae, consectetuer eget, rutrum at, lorem. Integer tincidunt ante vel ipsum.","amount":529.56},
{"iban":"CZ21 7118 3852 4225 4322 2565","date":"14/03/2018","description":"Integer ac neque. Duis bibendum. Morbi non quam nec dui luctus rutrum. Nulla tellus. In sagittis dui vel nisl. Duis ac nibh. Fusce lacus purus, aliquet at, feugiat non, pretium quis, lectus.","amount":-54.46},
{"iban":"GR77 5263 898M FS8M 8WMH 0CKZ FMU","date":"11/09/2017","description":"Quisque porta volutpat erat. Quisque erat eros, viverra eget, congue eget, semper rutrum, nulla. Nunc purus. Phasellus in felis. Donec semper sapien a libero. Nam dui. Proin leo odio, porttitor id, consequat in, consequat ut, nulla. Sed accumsan felis.","amount":-903.84},
{"iban":"FO10 4625 4461 1520 82","date":"21/12/2017","description":"Duis ac nibh. Fusce lacus purus, aliquet at, feugiat non, pretium quis, lectus. Suspendisse potenti.","amount":-265.95},
{"iban":"MR38 3769 2484 4325 4394 0782 672","date":"07/05/2018","description":"Etiam pretium iaculis justo.","amount":-729.41},
{"iban":"PS42 UCDJ XTN5 OTJM XWEA BDPN OUQF 2","date":"05/12/2017","description":"Suspendisse potenti. Nullam porttitor lacus at turpis. Donec posuere metus vitae ipsum. Aliquam non mauris.","amount":-763.26},
{"iban":"AT92 7682 9175 7689 4507","date":"02/06/2018","description":"Cum sociis natoque penatibus et magnis dis parturient montes, nascetur ridiculus mus. Etiam vel augue. Vestibulum rutrum rutrum neque. Aenean auctor gravida sem. Praesent id massa id nisl venenatis lacinia. Aenean sit amet justo. Morbi ut odio. Cras mi pede, malesuada in, imperdiet et, commodo vulputate, justo. In blandit ultrices enim.","amount":-217.02},
{"iban":"HR11 7064 0987 0463 4683 2","date":"02/03/2017","description":"In blandit ultrices enim.","amount":-686.18},
{"iban":"IL10 8212 8419 4665 8718 929","date":"19/01/2018","description":"Nulla facilisi. Cras non velit nec nisi vulputate nonummy. Maecenas tincidunt lacus at velit. Vivamus vel nulla eget eros elementum pellentesque. Quisque porta volutpat erat.","amount":-296.86},
{"iban":"ES33 1448 3056 0080 9878 2715","date":"10/10/2017","description":"Fusce consequat.","amount":-638.0},
{"iban":"VG97 ZHGO 9037 1866 1673 8244","date":"08/12/2017","description":"Morbi non lectus.","amount":-234.62},
{"iban":"FR64 5578 7136 07MO WCBE S7EV B06","date":"29/04/2018","description":"Duis mattis egestas metus. Aenean fermentum. Donec ut mauris eget massa tempor convallis.","amount":-244.85},
{"iban":"FR90 8166 5604 1451 J6BU 79BL 738","date":"27/05/2018","description":"Nulla facilisi. Cras non velit nec nisi vulputate nonummy. Maecenas tincidunt lacus at velit. Vivamus vel nulla eget eros elementum pellentesque. Quisque porta volutpat erat. Quisque erat eros, viverra eget, congue eget, semper rutrum, nulla. Nunc purus. Phasellus in felis.","amount":464.0},
{"iban":"GT47 1CYF IEPL 9J07 GBHT XZPB T5JB","date":"04/09/2017","description":"Vestibulum quam sapien, varius ut, blandit non, interdum in, ante. Vestibulum ante ipsum primis in faucibus orci luctus et ultrices posuere cubilia Curae; Duis faucibus accumsan odio. Curabitur convallis. Duis consequat dui nec nisi volutpat eleifend. Donec ut dolor. Morbi vel lectus in quam fringilla rhoncus. Mauris enim leo, rhoncus sed, vestibulum sit amet, cursus id, turpis. Integer aliquet, massa id lobortis convallis, tortor risus dapibus augue, vel accumsan tellus nisi eu orci.","amount":-150.53},
{"iban":"BH19 ROSB 12IS NDAM EYZT WZ","date":"29/10/2017","description":"Donec vitae nisi. Nam ultrices, libero non mattis pulvinar, nulla pede ullamcorper augue, a suscipit nulla elit ac nulla.","amount":-494.87},
{"iban":"GE29 RZ56 0125 7099 5621 53","date":"01/10/2017","description":"Morbi porttitor lorem id ligula. Suspendisse ornare consequat lectus. In est risus, auctor sed, tristique in, tempus sit amet, sem. Fusce consequat. Nulla nisl. Nunc nisl. Duis bibendum, felis sed interdum venenatis, turpis enim blandit mi, in porttitor pede justo eu massa. Donec dapibus. Duis at velit eu est congue elementum.","amount":523.27},
{"iban":"AT49 7091 7642 8697 8700","date":"27/03/2018","description":"Duis at velit eu est congue elementum.","amount":-525.55},
{"iban":"NO43 1589 8427 209","date":"01/06/2017","description":"Mauris lacinia sapien quis libero. Nullam sit amet turpis elementum ligula vehicula consequat. Morbi a ipsum. Integer a nibh.","amount":-130.64},
{"iban":"KZ42 540B HWN8 JAIW E9IZ","date":"27/03/2017","description":"Phasellus sit amet erat. Nulla tempus. Vivamus in felis eu sapien cursus vestibulum. Proin eu mi. Nulla ac enim. In tempor, turpis nec euismod scelerisque, quam turpis adipiscing lorem, vitae mattis nibh ligula nec sem.","amount":88.35},
{"iban":"AT40 6345 4093 0314 0223","date":"19/07/2017","description":"Vivamus metus arcu, adipiscing molestie, hendrerit at, vulputate vitae, nisl. Aenean lectus. Pellentesque eget nunc.","amount":-378.57},
{"iban":"FR51 7795 8506 97FX VKIO O6H6 177","date":"20/01/2018","description":"Donec quis orci eget orci vehicula condimentum. Curabitur in libero ut massa volutpat convallis. Morbi odio odio, elementum eu, interdum eu, tincidunt in, leo.","amount":-242.3},
{"iban":"ES76 4685 0146 9410 6574 4319","date":"25/05/2018","description":"Vestibulum rutrum rutrum neque. Aenean auctor gravida sem. Praesent id massa id nisl venenatis lacinia. Aenean sit amet justo. Morbi ut odio. Cras mi pede, malesuada in, imperdiet et, commodo vulputate, justo. In blandit ultrices enim. Lorem ipsum dolor sit amet, consectetuer adipiscing elit. Proin interdum mauris non ligula pellentesque ultrices. Phasellus id sapien in sapien iaculis congue.","amount":598.83},
{"iban":"MR25 8679 1020 9403 1914 3220 516","date":"09/05/2018","description":"Duis consequat dui nec nisi volutpat eleifend. Donec ut dolor. Morbi vel lectus in quam fringilla rhoncus. Mauris enim leo, rhoncus sed, vestibulum sit amet, cursus id, turpis. Integer aliquet, massa id lobortis convallis, tortor risus dapibus augue, vel accumsan tellus nisi eu orci. Mauris lacinia sapien quis libero. Nullam sit amet turpis elementum ligula vehicula consequat.","amount":-422.07},
{"iban":"MR64 7082 0628 9910 8599 4267 887","date":"18/04/2017","description":"Integer aliquet, massa id lobortis convallis, tortor risus dapibus augue, vel accumsan tellus nisi eu orci. Mauris lacinia sapien quis libero.","amount":-644.74},
{"iban":"LV82 PHRY ADTW RQEG DAHM X","date":"30/12/2017","description":"Quisque porta volutpat erat.","amount":782.9},
{"iban":"AE31 1784 2066 9356 2078 258","date":"06/03/2018","description":"In hac habitasse platea dictumst. Morbi vestibulum, velit id pretium iaculis, diam erat fermentum justo, nec condimentum neque sapien placerat ante. Nulla justo. Aliquam quis turpis eget elit sodales scelerisque. Mauris sit amet eros.","amount":-841.2},
{"iban":"GB63 DDWC 2788 9127 8959 94","date":"03/05/2018","description":"Morbi sem mauris, laoreet ut, rhoncus aliquet, pulvinar sed, nisl. Nunc rhoncus dui vel sem.","amount":-429.81},
{"iban":"ME45 9387 8537 2247 8584 85","date":"08/04/2018","description":"Morbi sem mauris, laoreet ut, rhoncus aliquet, pulvinar sed, nisl. Nunc rhoncus dui vel sem.","amount":187.27},
{"iban":"BH62 QRHB FJWH GL1Q WS0O P1","date":"27/07/2017","description":"Aliquam erat volutpat. In congue. Etiam justo. Etiam pretium iaculis justo. In hac habitasse platea dictumst.","amount":662.27},
{"iban":"AE15 8504 8404 8714 4998 419","date":"21/12/2017","description":"Nulla neque libero, convallis eget, eleifend luctus, ultricies eu, nibh. Quisque id justo sit amet sapien dignissim vestibulum. Vestibulum ante ipsum primis in faucibus orci luctus et ultrices posuere cubilia Curae; Nulla dapibus dolor vel est. Donec odio justo, sollicitudin ut, suscipit a, feugiat et, eros. Vestibulum ac est lacinia nisi venenatis tristique. Fusce congue, diam id ornare imperdiet, sapien urna pretium nisl, ut volutpat sapien arcu sed augue. Aliquam erat volutpat. In congue. Etiam justo.","amount":697.89},
{"iban":"TN07 8295 3550 5162 5153 0499","date":"05/05/2017","description":"Proin interdum mauris non ligula pellentesque ultrices. Phasellus id sapien in sapien iaculis congue. Vivamus metus arcu, adipiscing molestie, hendrerit at, vulputate vitae, nisl.","amount":930.58},
{"iban":"AT14 1637 2228 0790 1662","date":"18/03/2018","description":"Vivamus metus arcu, adipiscing molestie, hendrerit at, vulputate vitae, nisl. Aenean lectus. Pellentesque eget nunc.","amount":98.36},
{"iban":"PT86 3282 4419 4308 2570 1248 3","date":"04/12/2017","description":"Duis aliquam convallis nunc. Proin at turpis a pede posuere nonummy. Integer non velit. Donec diam neque, vestibulum eget, vulputate ut, ultrices vel, augue. Vestibulum ante ipsum primis in faucibus orci luctus et ultrices posuere cubilia Curae; Donec pharetra, magna vestibulum aliquet ultrices, erat tortor sollicitudin mi, sit amet lobortis sapien sapien non mi. Integer ac neque.","amount":-954.87},
{"iban":"ES10 9637 1934 1053 8078 5908","date":"22/07/2017","description":"Etiam justo. Etiam pretium iaculis justo. In hac habitasse platea dictumst. Etiam faucibus cursus urna. Ut tellus. Nulla ut erat id mauris vulputate elementum. Nullam varius. Nulla facilisi. Cras non velit nec nisi vulputate nonummy.","amount":356.78},
{"iban":"KW19 GXBB 1KYJ J5H0 VE8R CEM2 Q7LB WD","date":"04/08/2017","description":"Aliquam sit amet diam in magna bibendum imperdiet. Nullam orci pede, venenatis non, sodales sed, tincidunt eu, felis. Fusce posuere felis sed lacus. Morbi sem mauris, laoreet ut, rhoncus aliquet, pulvinar sed, nisl. Nunc rhoncus dui vel sem. Sed sagittis. Nam congue, risus semper porta volutpat, quam pede lobortis ligula, sit amet eleifend pede libero quis orci. Nullam molestie nibh in lectus. Pellentesque at nulla.","amount":741.95},
{"iban":"FR25 9209 3683 97MN LKT6 85LP F52","date":"18/09/2017","description":"Morbi sem mauris, laoreet ut, rhoncus aliquet, pulvinar sed, nisl. Nunc rhoncus dui vel sem. Sed sagittis. Nam congue, risus semper porta volutpat, quam pede lobortis ligula, sit amet eleifend pede libero quis orci. Nullam molestie nibh in lectus. Pellentesque at nulla. Suspendisse potenti. Cras in purus eu magna vulputate luctus.","amount":-604.53},
{"iban":"AE82 0830 2723 4599 7778 403","date":"16/02/2017","description":"Proin eu mi. Nulla ac enim. In tempor, turpis nec euismod scelerisque, quam turpis adipiscing lorem, vitae mattis nibh ligula nec sem. Duis aliquam convallis nunc.","amount":-299.84},
{"iban":"FR46 1638 7616 22TC WELY HB6Q H16","date":"15/06/2017","description":"Praesent blandit. Nam nulla. Integer pede justo, lacinia eget, tincidunt eget, tempus vel, pede. Morbi porttitor lorem id ligula.","amount":603.14},
{"iban":"FR29 9999 9774 70WB 9BJP ZMRC G93","date":"27/04/2018","description":"Duis mattis egestas metus. Aenean fermentum. Donec ut mauris eget massa tempor convallis.","amount":-844.16},
{"iban":"GR73 1546 4664 6RG3 WA4Q ZOB3 NCD","date":"13/06/2017","description":"Aliquam non mauris. Morbi non lectus. Aliquam sit amet diam in magna bibendum imperdiet. Nullam orci pede, venenatis non, sodales sed, tincidunt eu, felis. Fusce posuere felis sed lacus. Morbi sem mauris, laoreet ut, rhoncus aliquet, pulvinar sed, nisl. Nunc rhoncus dui vel sem.","amount":-356.16},
{"iban":"LI18 5474 7Z58 KQFM 8KBZ P","date":"16/07/2017","description":"Vivamus vestibulum sagittis sapien.","amount":366.66},
{"iban":"RO23 CUNS VMG8 C254 Y7FP ZTJA","date":"28/04/2018","description":"Morbi non quam nec dui luctus rutrum. Nulla tellus. In sagittis dui vel nisl. Duis ac nibh. Fusce lacus purus, aliquet at, feugiat non, pretium quis, lectus. Suspendisse potenti. In eleifend quam a odio.","amount":540.07},
{"iban":"PK45 PIWJ EZWV RGQK JUMX QWKQ","date":"17/02/2017","description":"Ut at dolor quis odio consequat varius. Integer ac leo. Pellentesque ultrices mattis odio. Donec vitae nisi. Nam ultrices, libero non mattis pulvinar, nulla pede ullamcorper augue, a suscipit nulla elit ac nulla. Sed vel enim sit amet nunc viverra dapibus. Nulla suscipit ligula in lacus. Curabitur at ipsum ac tellus semper interdum. Mauris ullamcorper purus sit amet nulla.","amount":-82.54},
{"iban":"FR44 4312 9838 90LH LVJH QCXY U81","date":"26/05/2018","description":"In hac habitasse platea dictumst. Etiam faucibus cursus urna. Ut tellus. Nulla ut erat id mauris vulputate elementum.","amount":171.46},
{"iban":"GE47 JY34 0792 7900 2340 76","date":"26/05/2018","description":"Morbi vel lectus in quam fringilla rhoncus. Mauris enim leo, rhoncus sed, vestibulum sit amet, cursus id, turpis. Integer aliquet, massa id lobortis convallis, tortor risus dapibus augue, vel accumsan tellus nisi eu orci. Mauris lacinia sapien quis libero. Nullam sit amet turpis elementum ligula vehicula consequat. Morbi a ipsum. Integer a nibh. In quis justo. Maecenas rhoncus aliquam lacus. Morbi quis tortor id nulla ultrices aliquet.","amount":289.26},
{"iban":"MR02 1649 7299 1511 8900 1364 482","date":"06/06/2017","description":"Maecenas rhoncus aliquam lacus. Morbi quis tortor id nulla ultrices aliquet. Maecenas leo odio, condimentum id, luctus nec, molestie sed, justo.","amount":751.86},
{"iban":"FR08 1470 0319 33EK OIEH HZVM X88","date":"08/07/2017","description":"Lorem ipsum dolor sit amet, consectetuer adipiscing elit. Proin interdum mauris non ligula pellentesque ultrices. Phasellus id sapien in sapien iaculis congue. Vivamus metus arcu, adipiscing molestie, hendrerit at, vulputate vitae, nisl. Aenean lectus. Pellentesque eget nunc. Donec quis orci eget orci vehicula condimentum. Curabitur in libero ut massa volutpat convallis. Morbi odio odio, elementum eu, interdum eu, tincidunt in, leo.","amount":-588.0},
{"iban":"DO09 41K9 3164 6922 3786 5364 0475","date":"11/03/2017","description":"Proin eu mi. Nulla ac enim. In tempor, turpis nec euismod scelerisque, quam turpis adipiscing lorem, vitae mattis nibh ligula nec sem. Duis aliquam convallis nunc. Proin at turpis a pede posuere nonummy. Integer non velit.","amount":573.69},
{"iban":"AE72 8745 4912 2309 7489 085","date":"26/02/2017","description":"Nulla mollis molestie lorem. Quisque ut erat. Curabitur gravida nisi at nibh. In hac habitasse platea dictumst. Aliquam augue quam, sollicitudin vitae, consectetuer eget, rutrum at, lorem. Integer tincidunt ante vel ipsum. Praesent blandit lacinia erat. Vestibulum sed magna at nunc commodo placerat. Praesent blandit. Nam nulla.","amount":-792.6},
{"iban":"NO31 5699 7124 501","date":"13/01/2018","description":"Donec diam neque, vestibulum eget, vulputate ut, ultrices vel, augue. Vestibulum ante ipsum primis in faucibus orci luctus et ultrices posuere cubilia Curae; Donec pharetra, magna vestibulum aliquet ultrices, erat tortor sollicitudin mi, sit amet lobortis sapien sapien non mi. Integer ac neque. Duis bibendum. Morbi non quam nec dui luctus rutrum. Nulla tellus. In sagittis dui vel nisl. Duis ac nibh. Fusce lacus purus, aliquet at, feugiat non, pretium quis, lectus. Suspendisse potenti.","amount":168.57},
{"iban":"SI72 1282 8266 1476 680","date":"13/03/2018","description":"Pellentesque viverra pede ac diam.","amount":816.34},
{"iban":"MR02 4048 6510 1102 2872 9484 026","date":"07/10/2017","description":"Pellentesque viverra pede ac diam. Cras pellentesque volutpat dui. Maecenas tristique, est et tempus semper, est quam pharetra magna, ac consequat metus sapien ut nunc. Vestibulum ante ipsum primis in faucibus orci luctus et ultrices posuere cubilia Curae; Mauris viverra diam vitae quam. Suspendisse potenti. Nullam porttitor lacus at turpis. Donec posuere metus vitae ipsum.","amount":-269.86},
{"iban":"HR52 2258 5520 2523 8712 2","date":"11/09/2017","description":"Nulla neque libero, convallis eget, eleifend luctus, ultricies eu, nibh. Quisque id justo sit amet sapien dignissim vestibulum. Vestibulum ante ipsum primis in faucibus orci luctus et ultrices posuere cubilia Curae; Nulla dapibus dolor vel est. Donec odio justo, sollicitudin ut, suscipit a, feugiat et, eros. Vestibulum ac est lacinia nisi venenatis tristique.","amount":159.96},
{"iban":"GE03 CA84 4701 6264 2391 53","date":"04/11/2017","description":"Donec quis orci eget orci vehicula condimentum. Curabitur in libero ut massa volutpat convallis. Morbi odio odio, elementum eu, interdum eu, tincidunt in, leo. Maecenas pulvinar lobortis est. Phasellus sit amet erat. Nulla tempus. Vivamus in felis eu sapien cursus vestibulum. Proin eu mi.","amount":-850.38}]